module utils

go 1.14

replace pd-server => ../pd-server

replace pd-client => ../pd-client

replace pd-utils => ../utils

require (
	github.com/kr/pty v1.1.4 // indirect
	github.com/milindl/gdb v0.0.0-20190313144628-2570327651ab
)
