module pd-server

go 1.14

replace pd-server => ../pd-server

replace pd-client => ../pd-client

replace pd-utils => ../utils

require github.com/marcusolsson/tui-go v0.4.0

require pd-utils v0.0.0-00010101000000-000000000000
